{
    "required": true,
    "package": "waahhhh.anvilcostadjustment.mixin.anvil",
    "compatibilityLevel": "JAVA_17",
    "mixins": [
        "BreakableMixin",
        "EnchantmentMixin",
        "RenameMixin",
        "RepairMixin"
    ],
    "injectors": {
        "defaultRequire": 1
    }
}
