{
    "schemaVersion": 1,
    "id": "anvil-cost-adjustment",
    "version": "${version}",
    "name": "Anvil cost adjustment",
    "description": "Customize the anvil cost behaviour.",
    "authors": [
        "waahhhh"
    ],
    "contact": {
        "homepage": "https://fabricmc.net/",
        "sources": "https://gitlab.com/waahhhh-minecraft/anvil-cost-adjustment"
    },
    "license": "MIT",
    "icon": "assets/anvil-cost-adjustment/icon.png",
    "environment": "*",
    "entrypoints": {
        "main": [
            "waahhhh.anvilcostadjustment.AnvilCostAdjustment"
        ],
        "client": [
            "waahhhh.anvilcostadjustment.AnvilCostAdjustmentClient"
        ],
        "fabric-datagen": [
            "waahhhh.anvilcostadjustment.AnvilCostAdjustmentDataGenerator"
        ]
    },
    "mixins": [
        "anvil-cost-adjustment.mixins.anvil.json"
    ],
    "depends": {
        "fabricloader": ">=0.14.25",
        "minecraft": "~1.20.1",
        "java": ">=17",
        "fabric-api": "*",
        "owo-lib": ">=0.11.2+1.20"
    },
    "suggests": {
        "another-mod": "*"
    }
}
